265231020
51131863
42317552
42195818
40241502
37502819
41140590
48576474
40636365
41280191
38684980
36336089
35822114
37245471
35442843
37129567
38596711
35341899
39274361
51350220
37683130
39331895
36799405
34197913
35388250
36814511
36330580
37549582
39621332
38170000
34848373
34325071
39080960
36923057
37818022
36904482
33983888
38654352
34605489
44007838
35927637
36502258
34577451
41341932
37209387
34386086
34904463
37276673
35068451
34295744
36436937
34296589
34801549
34113549
33547540
33416080
35682362
33732553
35491255
33820914
35206821
37304902
33400113
41116440
35343436
35056253
38127836
34660973
34813634
35794475
34850736
39870726
36321051
35177418
44609063
35015378
35765043
37631044
37244613
33518496
33955542
35225321
34016695
35623299
34348711
34503219
33161323
37368004
38308237
38211728
32665192
34415485
37987571
36097013
35198349
35016990
35790167
37738927
33697493
37528005
33023385
34726317
33666570
33492727
40023262
33811293
34113296
33152381
34454038
33884989
36052827
34797311
33401200
36561360
36825813
34149889
34810969
34398501
35064838
34166695
35346481
36554534
37489364
49074756
34489090
36923268
35049623
34630068
37179233
34788193
33623855
34200127
38932636
35679646
39025747
35244538
35206675
33892619
34785089
34165464
33170931
34182950
35248882
34375783
35735564
36980747
34119604
33033207
40859969
36662289
34155898
39648294
35852963
34099832
34684755
41402099
33973154
34724409
36473763
33980410
35542647
33168361
33760889
34694011
35233501
35772254
35841010
33541859
33192187
37027159
38945024
35762327
36004023
37514030
33748170
33902863
37196473
34891932
35705572
38915162
36841232
37470311
34723942
34906231
33686004
33267512
34480537
36493024
35721833
35600792
35045230
34358031
36662749
35624341
34374423
36866292
33497158
34340576
35269963
33703334
33827430
37208746
33297571
34501012
33501996
35828010
33406324
33276384
35754180
33808076
35123399
34077422
34954459
34475476
33980767
37902155
33863131
32831551
35619797
33257368
35891279
33083334
33621033
33521984
36086643
33924972
35557558
33139734
36127461
33754087
39502642
34142281
33934375
35839794
39471103
35421986
37686722
34845937
35035638
34877871
33813374
34745556
34021553
33749708
35490192
46257081
33802944
34942002
34235496
33523155
34195274
33647286
32798667
33151546
34348906
34159384
35226281
34998988
34582964
41426827
34609263
35518542
33535582
33402640
33948815
35413198
33817857
35162756
34363124
33510799
36053833
33289522
32448610
32403008
35143860
36265398
33939049
33651615
32690615
34929820
33519455
33823903
33525564
33211635
33285648
32717949
32781390
34556839
35931730
35120034
35502627
32880545
36403409
44891993
33440009
34014346
33530810
33475876
35886258
34089872
32923746
35911510
32618249
33926513
32940880
35210408
34262908
36420387
34770353
33503554
32847516
34605173
34325859
36106313
33714211
33651662
37884846
35189080
33562707
33055709
35991095
36085176
34216657
33682452
35253946
34338219
34895465
33094080
33991575
32627105
33164534
34991765
31960906
33375551
33691825
37737804
43002340
38083165
34015780
34520521
33879447
33309007
33025590
33846272
33324440
32998144
33694853
33822188
35786615
32348051
34835748
33239744
35474833
35328359
33020040
32847967
33509840
33074684
35985326
33883800
44743677
35517495
36361099
35238116
34277278
36625657
35023377
36757275
34727099
33811847
34519270
34992053
42546083
34323713
36483844
33853345
35786992
33866286
41728220
34975383
35026274
33275128
40042172
33711233
34016731
33238102
33963751
34433740
33094964
35577612
32519707
34946615
36913402
35115953
37122964
33530195
33520119
33956218
36460489
34604543
34613585
32363933
33909078
34153130
34926011
34214249
34747630
35639633
34459256
34404227
33097814
32394466
32693318
35474962
33889705
32620216
33354301
32073821
32369548
33641501
33817027
34631001
35471725
34385053
34911338
32988776
42631993
35421368
32766660
37493499
32767763
32591647
33313950
33288370
35522766
42854954
35499206
34258331
32417898
32973579
35570698
36827010
33712497
33601244
33304387
32768581
34597142
35270507
36071907
35209096
33420573
32631927
33004465
34290957
33856400
34129419
34370597
38311118
34075133
35883776
34909184
36232726
34182973
33206112
33166395
34164930
41899800
36092154
34557540
34282400
51026141
36477672
38067294
33557543
32966756
32500245
33554398
33475671
32473108
36432494
33680367
33218687
33572568
37187012
33274916
34824021
35652718
33504485
33616189
34112808
37149980
33569953
32941585
34511133
33748565
36152275
33142389
33050721
34081670
35012365
33366071
39644383
32577585
31688398
40491747
32358149
33538824
35713158
32916292
33711744
42356169
33956767
33693835
33394644
32665571
34455167
34323969
35243572
35672584
34780334
33593739
44869054
33476550
34742597
34225755
34209989
32318924
42319336
34102637
34501254
34599666
33564078
35236546
33212108
34586214
33545950
35639628
32215647
33996682
36300576
31676520
33785177
36323032
33898984
34011105
33789648
33959364
34804644
31919303
36666350
33373475
32675953
33917993
32673805
33988219
35870181
32731993
33662710
33901074
44789356
34599284
33784828
34759436
36085311
36915237
32564327
34979299
33614751
35904724
32637644
35919679
32453733
33512879
34521892
35138553
33902412
32847541
33517470
33865839
34815278
34040766
32652533
33633506
34278532
34260653
35517836
33137174
37055176
36117262
33005875
36437795
33364979
34050960
36917465
37474336
33218899
33267276
33759676
33275827
34860380
32656757
33111255
33359621
36724959
41923885
32868945
33380233
34212291
34667416
34556982
33388848
39067495
35725579
35099765
32190775
33144663
33556069
35998407
35286154
34603446
32591363
33538991
32572766
32744073
32492940
42022169
36793900
36723021
33361857
33157993
32799418
33427561
33907047
34007101
38501455
34677865
33673256
36418624
34872709
33352278
33889597
33550181
34614211
34332590
35234384
32527061
38171933
32912005
34180983
33766448
34284704
33922572
34729231
33088903
33054255
34258166
34731831
32711986
35057653
33642163
32884939
35455068
33756274
35077053
34452241
35739276
36841181
34228821
34091239
33163149
32685449
35198080
40668511
33802874
34237131
33757420
33737978
32434133
34097830
33299124
36192103
33384931
32875823
34038607
33978660
34128768
32815805
32372797
34331867
31801738
33623406
35132961
34392240
35393235
32553938
34480216
34685526
33777670
34608973
33783186
33437857
33574098
33559652
36858918
33391067
36330433
35029892
34516133
32306537
34813256
33504121
34683901
36644920
34196858
33942357
32999734
39906727
33485448
33134566
35568749
35676346
33704836
33788761
35358155
37093956
34285070
33813897
32672220
33712026
34650052
35391903
35024474
34260345
33266854
35034484
34868836
33434091
33655700
34533879
35837234
34002454
36409817
34493917
34477354
35804714
33816144
33269620
34524897
31929444
33132992
34812668
33948237
35086264
33599314
33827908
34936366
35232766
34079543
33663084
43281434
33191578
34079807
35279104
33402673
35562354
33306932
34834548
35150956
34447766
34747885
34837707
33484179
31806052
34842553
32484308
35633210
34005576
32996088
33551646
33702132
34955708
32621978
34341222
32996385
34257279
33828691
35409081
33091766
34912410
33732491
36855662
38149162
35505763
34384304
33660430
35857845
34732240
32451016
36159064
33984312
32426119
33564470
33804415
34613000
33836373
34889298
33653165
33712208
34088684
37094796
33717407
34611926
32697923
34947672
33383175
36008859
34140167
33145120
32657142
42819417
34158459
33491229
34815095
34556745
33444421
33673258
33849726
33805424
34538718
35366236
34404272
35015533
33374922
37026609
34524022
34130992
33397281
33453143
33458861
34789458
34135009
35271167
34465823
35424522
34171344
33896794
33958890
34123194
34665154
34564899
32940334
33641177
33818905
33767315
32944056
32764862
36178382
33386392
33520084
35048154
34575950
33942306
35141990
34036242
35497322
33296703
33229915
33671532
32512379
37341621
35363981
36548733
33752721
33507051
33238954
33504486
35769777
33432269
35178797
33475863
32684250
33488119
34546576
33637404
32200558
36650882
32728988
34303974
34978579
33885049
35565760
32550669
33049786
34033337
31679509
40709707
35352739
36232627
33693441
34769390
34853896
33334119
33392484
33516058
32937946
33291205
35901469
35048037
34370574
33990379
34656005
33561027
35449439
33728241
32868934
34768993
32990341
34429380
32630753
42910261
33890028
36835067
33877991
50798331
35771738
32029603
34821362
33079450
33729470
32782513
36719245
34820859
33910884
34229096
33143142
33073560
33219271
35040263
33051583
34739581
33597737
32719588
34033536
34671340
34341595
33775410
35041794
36350961
33452296
34635883
33513241
42633274
33704316
34855368
33718532
34570664
33287829
32519644
33894617
33065493
33209884
34894012
39761537
32320989
33781637
33529702
34021815
32038501
34586817
35874759
33627577
32814040
34803439
32960872
33489264
33740829
34345537
33101753
34690590
34446486
35709339
34231519
42425974
33132592
32984601
33235600
33357604
32991586
32834115
33286555
34895775
35340900
33565145
33347978
33965756
35349806
36971828
33814530
33674469
32926798
34099729
38650537
33164537
33857808
33624449
34392002
32434435
35541421
32760525
33450104
32044101
34649941
33350334
37659491
33512566
33652691
33032489
31727761
34832826
32805830
34051100
34094780
34314139
33118861
34321359
35049195
36103236
35479702
33588721
32751936
33372948
32860563
32774771
33053763
32493898
33772104
34476595
34399974
33127117
35857156
33327491
33054060
33922998
32910536
32415258
32671235
34242530
34980683
34470342
36580885
42747601
33987393
34277301
32375221
34198595
33158910
34237399
33297853
35371213
32096800
32772159
34802978
33590638
36213474
33408437
34854980
33245031
32727150
34593531
34017097
34351998
33351814
34100162
33585286
34909460
33990059
34490741
33657481
34317512
32814432
34447750
32511298
34093871
33519664
33510964
33770768
33049867
34849234
32389564
33185324
33336114
33551829
33268922
34699243
32582560
34715043
34653794
32766068
38296873
34068551
34201185
35913623
34756716
35174538
42273834
33997601
33441721
33431666
34948072
33635922
33007269
31866483
36505392
33626051
31811778
33823497
33688166
36170191
36438015
34564957
33691200
33030270
35680982
34874821
33193658
32584613
35015105
34423148
33470076
36545596
33457557
37761315
33405075
34279200
36066615
34035000
38215862
33969498
36221615
33521483
32870733
38282720
33478680
38536894
31748889
33426072
34581529
33351072
35441005
34154410
38322938
34127528
34279214
44977283
33169311
33842842
35095776
34495176
35435719
37429830
35923020
34510290
43308585
39364191
32725334
33670277
37079039
33067365
34630193
35708637
33403362
33483815
33868849
33614377
33991499
36163839
33420325
32930636
34473359
34681324
34310078
33340370
35207516
34715705
36304749
35882782
32883491
32577779
33758763
32609310
34109400
35681646
33005168
32607937
34492002
35417254
35177866
36311245
34380014
33325218
34149876
34194608
32526324
33097331
39984882
41339950
33348336
33739776
35508330
35087908
35039002
34376986
34549785
33907142
32611922
33587012
34481459
38752301
34022342
34201406
33486304
34087438
34978879
32793461
36323261
35563688
33331343
34052372
32830430
34100576
34150165
33415839
33089771
32797477
33832488
34325856
34233276
33251236
34929188
32975550
35132706
32876037
36144159
34518980
34825597
34435777
35290546
34125558
34463198
34482998
35063345
34516294
37388297
33258984
37179929
34134084
34579673
38284586
34457794
34663348
33524688
34238565
34541306
36585759
33756313
32748019
35694187
35351247
34085272
42456892
35685185
34024412
33636973
34838394
33664517
32252577
34399501
32883688
35917290
33833997
33233172
31937470
32633062
40463447
33026698
36716041
34992459
34020114
33471528
35373370
38777646
33599831
32314784
35964512
33082870
35636957
33806776
35843606
32691314
33968768
36273888
33392718
35183895
33915987
33015702
34633183
32902627
33373383
32803144
35276717
35666734
33109478
34131830
34156159
34109319
34890557
33628990
33324768
34748608
34151647
33963659
33667275
32383734
33688188
33124682
44798137
34587391
34362708
33069723
35574311
33622620
33467378
32807381
34366689
33781626
35460019
33222879
33231302
33160507
34378700
33175612
35221748
33929647
33431621
34184584
33197748
33607468
32612905
35267251
34002174
33113196
33948500
35811253
33406032
37663131
35511917
32511941
35704097
33178328
33943378
35463552
33217735
35073564
33664303
36728690
32543436
33274104
34874589
32250715
37162493
34740944
32197890
34991645
32528782
33506578
34630522
33544374
33576446
33125076
32598773
34857088
33091543
33404746
34990170
33961636
40690698
33489833
32947579
33346037
34298584
33012589
36203913
47894747
32423005
34860697
33025696
33030983
35244481
35013205
42456353
31900102
32617221
34138179
34445011
33986788
39141194
35103147
38124172
32486710
33835763
34200883
36383909
35122568
34980919
33065733
36461417
33912331
33743485
32952236
33590438
34509600
33309044
35897487
32594116
35250411
33954906
33392061
34692861
33186348
33570771
35384692
33772639
35734377
32781702
32798111
33074488
33713827
31953566
32737421
34466945
32971846
32968655
33209176
34501704
34303254
34669333
31187754
32269806
33967900
41595533
34538497
34279538
35541852
34310300
33821519
34928903
34798596
33126609
35620358
32461363
32161238
33390089
33485101
32718206
34672732
33628707
34600233
32713332
32883050
33735438
34699763
32920383
33871178
33452203
34942540
33281775
44208108
32927519
34659707
32461350
32296703
31913416
36749382
36016634
36725336
34797809
34054197
33748137
32516246
34594379
33926416
33941939
34676674
35202007
36597897
33828411
33788201
32908846
33157875
33489238
36126928
33499468
35052980
32682988
37479559
33220940
32858781
33105241
34973333
39033922
32741174
33480595
35269409
33157082
34382464
42760248
34901984
34923184
33337622
33546665
32363859
32238783
32501953
32630260
33553991
32601612
34185378
32149592
33182990
34354835
33872473
33362613
34106679
33445777
32522320
34124829
34199655
33644644
32299829
35768104
33227777
36526482
32635611
32557472
34494859
34048148
32971499
36120429
33238491
34687942
33823136
32708046
32152382
33530958
32532711
32979975
33955297
34850669
32995756
34821373
34129865
33235889
32178582
32448125
33961713
32426353
34102854
36438936
36011443
32749643
32559379
33748992
36527472
35298211
34273161
32376216
32771736
34175700
33112708
33628935
32645603
33887865
33461045
34986335
33354333
33814303
32200791
32239447
32477883
34454980
32682320
32348421
32919588
32356656
33540551
33764919
34307500
39399160
33589521
34156623
36656618
34918534
34912613
33557259
34125380
33977457
35327106
36653269
33493060
38771365
33248395
32938045
33387882
33390830
36318624
32826161
37108890
34231030
34439192
34927021
33622167
32670531
44724881
32747192
33300345
35469590
35124940
32860089
38548648
34517846
35179945
35993330
35066009
32786238
32410077
34534477
34115776
33297618
34306904
32930334
33133037
32669446
35342429
34403653
33532162
33223937
34609142
34622358
34944247
34536495
34306939
33820886
33226700
44446889
33570893
34577510
32563708
33156395
33613766
32851397
34672615
34175212
36869433
35272764
34160565
33586225
34353882
32798127
32783205
35156273
31922442
34632597
33867981
33044003
35343603
34655340
34803541
34419107
34936754
35128377
32382562
34090449
33771020
32978034
32856627
31712036
34130769
34864191
34790835
31519612
33829920
35143038
33067814
33191279
34692562
35677813
33792141
33187793
33760477
33786906
33110994
33128276
33868573
32713693
34269534
33609204
35490492
32749873
33045262
32542479
33426011
35390166
35332449
33083508
34123579
34598149
33166755
35642386
33556745
35074966
35169140
37728982
35059646
34495390
34176148
37539809
33840828
34972252
34510567
33966075
34286907
33053040
34049452
33474129
32147715
34003780
32481734
33196067
31999515
33582209
32313741
34874507
33269365
36207571
33892436
33576711
35766878
34787415
34413913
33160681
32815365
33351971
33745818
35627487
33426850
34630357
34555623
33625403
33996049
33128264
33670080
34895682
33577567
34450040
35272710
33735562
32836564
33858276
34615810
43962518
33453614
32991899
33272148
33376854
34149336
33539524
33309653
33429057
33572176
32855535
39312225
40926251
32721549
36346409
32438800
32680746
34738176
34044165
32853468
34752495
33569000
34256726
33189287
32999582
35629859
32437813
33435507
45815780
33310709
32812182
37441313
34934450
33345668
45255031
33961683
35787614
33861747
33228015
32732708
34618779
34650397
35752578
33494894
35101120
34638297
33509190
33801820
33220478
34174910
32753673
33276793
35087653
36113126
33477938
33997850
33930453
33089502
33060877
33758284
32573774
34425018
36129337
34759075
34418739
33365404
33765378
32803180
35036781
35694101
33566965
35259983
42475854
33661410
35085456
32263580
35313992
33762749
34562848
32899056
35142337
33469163
34180023
35425083
35680217
33717017
40124843
32859460
34798812
34398183
32825104
32001695
34243644
35490599
32562719
35378461
32984446
34379760
38539485
33365069
33841804
32862850
34406080
35762638
32689010
33283654
31638275
34843327
32774326
36042190
33395879
32146307
32411718
34451105
34770405
34610626
33324962
34680389
33169842
35350040
34051378
33389339
32841517
32197583
33566873
33843917
33184790
32420353
32544860
32257019
32403466
33084342
35061409
34283953
33750774
32367667
33829114
33998050
36237271
33248037
34219784
37014433
32559253
32178428
34869643
32191209
32922812
33182325
36335852
32967708
33704767
33997744
33154640
34145328
33826159
33170836
34145384
34243496
32947199
32874925
33710267
33287529
33743293
32234813
34221899
40478188
34786871
33413489
31942457
34676948
35669940
32985353
43147791
33370348
34149989
32099970
33121966
32952076
31991285
34820541
34471532
33386069
32958129
32875251
33116036
32690860
33349214
34245474
33572509
32600119
34383385
33416746
35432517
33133621
33254190
34447531
32227565
32896482
32727241
32592541
34769611
34244674
33514242
34899390
36051606
32758722
34318609
32667681
33536471
32520303
33011717
33428233
38164679
32195771
33554089
33687035
32134277
31896563
34344333
32505354
34806168
32911250
33665568
34822297
33046114
32315975
36437643
34038316
32408788
32143166
34222700
34601865
32631648
34482148
37589531
34499439
33651511
33263823
33081323
33952478
34520321
34107567
32088896
35881718
34834766
34721928
32313746
33602196
32679411
33197196
34604682
32701464
33222981
31926729
34524643
35339566
33226610
33857329
32876076
33168506
31204370
34515352
33320830
32420986
32417964
33244370
36935660
35028285
34406094
36625034
33953654
33997363
35516537
32457430
34772618
34827535
33400247
34517419
34702362
34179285
33766170
32065427
33463372
33548930
33194388
32265528
32176727
33016705
32092369
41093051
32591184
36024614
32914306
33909381
43791534
33318606
34076968
33147527
35073503
33839767
32846717
32331718
32572088
32985678
33597882
33331337
31556222
34412814
33078816
34898104
34628835
33189619
32909337
35185622
33185206
32048848
33145299
33708531
34665675
42113184
39069644
34341800
33694312
34491826
32484854
33306662
34013911
33914450
34032233
35501926
35244371
33786794
36706329
34766770
32929304
33413082
33143472
44851851
36690630
32643148
34622526
32826714
34234577
33016305
34859565
35381006
36911814
33690688
36332881
33736192
37134000
35313590
36930268
36469198
34804065
33318594
35299519
33948679
32885305
33044323
36229971
34210488
34254177
32500567
33423118
33684912
34810386
33587727
32827358
34845182
34947994
34995666
32404947
40955785
35090806
33892189
35348489
38891988
33864477
35108324
33181298
33418285
32924412
34338770
36176866
32661292
33884005
33527306
33429635
34976751
36630975
33047868
33947503
34836028
37763196
33196793
34748374
32429653
34457805
33487977
33256437
33913588
33949490
32555068
33285053
33045700
41936529
34742695
32388127
32617727
33388792
34793075
35445791
33680043
34198987
36621605
36062851
33902564
34566158
34027968
32709809
32897605
32388184
34254725
33504063
32764948
33346590
33924906
33208438
33613258
32842952
35027132
40668577
35369326
35096400
32847855
36384176
33286766
33677341
34552885
36578519
34084188
33631647
32801775
33164759
35754680
32272116
34437731
33314643
35158180
33051895
32515328
33650481
34564194
34432078
33678227
34672100
33686531
33867630
34404202
35373654
42054695
34954248
33793075
38138750
33911857
33382447
34433137
33330640
34425226
34933736
33139133
32907036
32585717
33101407
32919431
34815487
34789624
32999792
33418549
33181208
34250047
33443197
33978413
33279706
32776015
33896117
32312632
34690101
33398426
33135922
33987222
33109123
32218731
32306015
33166012
33702162
33542726
35529649
33383648
32622523
31896657
34525258
36244233
33966137
44006047
33933719
33181490
32640482
33198249
33784093
33217933
33566498
33124542
34788147
35167862
34321818
34795911
33929744
34650160
32313434
39144796
34650113
33203988
33593046
33811219
33550418
38245522
34931367
32578721
33781751
35002866
32135527
32488443
33520135
33293146
33507179
33104108
32173270
32817743
32653274
33174516
35976759
32642044
33524067
32659815
34342498
33811562
33546293
34676802
34380140
36386126
34586350
33540624
32344314
34176524
34459568
32832457
35467831
33171416
33694586
32797858
35138297
32401072
36342846
32704514
35331937
34685414
34676175
33720037
34037855
35667606
36589650
32647606
33571871
34505002
32285842
33123845
35117898
34279623
35772334
35596187
34792911
34009710
32599773
32842125
32082217
33369522
34158348
36016545
33221895
32820357
32420951
35204345
38813995
35331238
32528858
32875093
40064352
34781988
35291352
34518008
34691879
33378830
33275921
32081151
33225741
32437732
43234978
32743829
36203434
33530295
32929979
33477078
35214895
34700528
33311699
33823154
33515793
31950198
33780305
33793711
42165628
34993399
31676281
34544328
43041388
34262742
33551678
33438887
35207126
34139851
33181487
33996565
35302530
35792515
36011670
33392402
33555467
31905613
34409439
32300461
32148373
32511240
34528848
33493608
33454890
33685322
32530760
34942990
33221046
32240209
35606666
34277336
34796850
34093868
33636130
33139990
33422787
36691114
32170405
32635594
33362519
34278101
34615015
33560912
32462883
33326734
32549174
32678241
34411579
34886414
33490280
33160943
32511748
33912176
33210723
34735672
32433078
33565276
33216444
35125340
33306676
34479644
32691710
35265028
32372584
33912450
33519372
34634573
33303477
33700133
38565257
34723677
32316262
34800603
33397876
33393615
34385648
34081879
32841501
33375624
33329662
33786631
34042804
33959073
35242283
32377871
32878206
33090625
32179613
33687210
32147737
42297430
34997160
34506857
33317673
32363955
32832550
33859841
32602852
32923142
34564176
43413521
34733876
34017075
33745272
38318194
32574708
38963464
37169214
33457379
33769975
32687882
31844573
33064248
32256597
33309088
32844404
33045179
35989066
34095331
34944341
35998940
34024125
37806686
35678536
33079386
35032886
32389869
32353933
33040149
33110841
33031786
33459243
32472643
34541480
32908454
35531680
35227466
33458121
33680005
42787595
35931095
32642187
32498533
35342684
33700472
34249691
33842160
33973216
34063898
36557000
33239897
34068898
32735671
35661748
33324096
32745427
33848165
32305400
32483380
34229981
33732610
33316526
34572857
34588455
34408339
35777429
34694447
32414566
33475452
34454372
33112552
35395569
33703114
35681598
33266562
37214291
33116208
34869615
34854039
32760922
31947576
33127064
34406566
34336842
33276518
32656949
35981078
34058994
32796837
33656208
34436905
35840003
32298005
33309212
34932675
35015629
32705300
33087134
34159517
32929407
34964018
32198064
32744865
38794819
33867064
37947559
33919550
33496813
32709482
33380419
34642243
32505864
33517857
34637901
35199601
33198200
41411553
33325529
35337787
32975504
34221957
33422781
34084154
33088350
33654305
34111142
34871242
34240197
34413761
35265242
33548967
34129117
34019276
33780144
34698938
37682884
32903846
34427748
33093217
34863209
34180298
33445672
36676677
35970793
35013974
34864088
32992623
32422770
34156494
32826898
